ICP5006 Progress Blog: Exploración de datos
…
[1] "1" "0" "."

unique(var_dep$P19_7)

[1] "0" "1" "."

unique(var_dep$P19_8)

[1] "0" "." "1"

#cleaning NAs by putting the "." as NA
var_dep %>% replace_with_na(replace = list(P19_1 = ".", P19_2= ".",P19_3=".",P19_4=".",P19_5=".",
                                           P19_6=".",P19_7=".",P19_8="."))

# A tibble: 7,601 × 24
   P1_MAmb P2_COD   P3A   P3B   P3C   P3D   P3E   P3F    P4 P17_COD
     <dbl>  <dbl> <dbl> <dbl> <dbl> <dbl> <dbl> <dbl> <dbl>   <dbl>
 1       2      6     3     2     2     2     3     3     3       5
 2       4      2     4     4     4     3     4     4     3       3
 3       3      5     3     3     4     8     2     3     3      88
 4       1      3     4     3     4     3     3     3     1       7
 5       3      1     3     3     3     9     4     3     2       7
 6       3      6     3     3     3     8     4     3     3       3
 7       3      1     3     1     2     2     1     3     2       5
 8       3      6     4     4     3     3     4     3     3       3
 9       5      6     4     4     3     4     4     4     2       3
10       3      1     3     4     2     4     3     3     3      88
# … with 7,591 more rows, and 14 more variables: P19_1 <chr>,
#   P19_2 <chr>, P19_3 <chr>, P19_4 <chr>, P19_5 <chr>, P19_6 <chr>,
#   P19_7 <chr>, P19_8 <chr>, P20 <chr>, P21A <chr>, P21B <chr>,
#   P21C <chr>, P21D <chr>, P30 <dbl>
# ℹ Use `print(n = ...)` to see more rows, and `colnames()` to see all variable names
…
[1] "4" "." "3" "2" "1" "8" "9"

unique(var_dep$P21C)

[1] "4" "." "3" "2" "9" "8" "1"

unique(var_dep$P21D)

[1] "4" "." "3" "2" "8" "1" "9"

#cleaning NAs by putting the "." as NA
var_dep %>% replace_with_na(replace = list(P21A = ".", P21B= ".",P21C=".",P21D="."))

# A tibble: 7,601 × 24
   P1_MAmb P2_COD   P3A   P3B   P3C   P3D   P3E   P3F    P4 P17_COD
     <dbl>  <dbl> <dbl> <dbl> <dbl> <dbl> <dbl> <dbl> <dbl>   <dbl>
 1       2      6     3     2     2     2     3     3     3       5
 2       4      2     4     4     4     3     4     4     3       3
 3       3      5     3     3     4     8     2     3     3      88
 4       1      3     4     3     4     3     3     3     1       7
 5       3      1     3     3     3     9     4     3     2       7
 6       3      6     3     3     3     8     4     3     3       3
 7       3      1     3     1     2     2     1     3     2       5
 8       3      6     4     4     3     3     4     3     3       3
 9       5      6     4     4     3     4     4     4     2       3
10       3      1     3     4     2     4     3     3     3      88
# … with 7,591 more rows, and 14 more variables: P19_1 <chr>,
#   P19_2 <chr>, P19_3 <chr>, P19_4 <chr>, P19_5 <chr>, P19_6 <chr>,
#   P19_7 <chr>, P19_8 <chr>, P20 <chr>, P21A <chr>, P21B <chr>,
#   P21C <chr>, P21D <chr>, P30 <dbl>
# ℹ Use `print(n = ...)` to see more rows, and `colnames()` to see all variable names
…
